%YAML 1.1
%TAG !u! tag:unity3d.com,2011:
--- !u!114 &11400000
MonoBehaviour:
  m_ObjectHideFlags: 0
  m_CorrespondingSourceObject: {fileID: 0}
  m_PrefabInstance: {fileID: 0}
  m_PrefabAsset: {fileID: 0}
  m_GameObject: {fileID: 0}
  m_Enabled: 1
  m_EditorHideFlags: 0
  m_Script: {fileID: 11500000, guid: 83855bec1af0af64f8c362c1e6e5e8e0, type: 3}
  m_Name: Road
  m_EditorClassIdentifier: 
  SelectedAudio_Text:
  - Nope not going there
  SelectedAudioList:
  - Guid:
      Data1: -1414027600
      Data2: 1334206654
      Data3: -881809753
      Data4: -2144689526
    Path: event:/interactiveAudio/Road
