%YAML 1.1
%TAG !u! tag:unity3d.com,2011:
--- !u!114 &11400000
MonoBehaviour:
  m_ObjectHideFlags: 0
  m_CorrespondingSourceObject: {fileID: 0}
  m_PrefabInstance: {fileID: 0}
  m_PrefabAsset: {fileID: 0}
  m_GameObject: {fileID: 0}
  m_Enabled: 1
  m_EditorHideFlags: 0
  m_Script: {fileID: 11500000, guid: d52751ab3ee923048baa6c4e1e891599, type: 3}
  m_Name: NotePad_Inventory_Object 1
  m_EditorClassIdentifier: 
  Evidence: 1
  ObjectFound: 0
  ObjectDataName: NotePad
  Object_Clue: NotePad
  ObjectInventory_Image: {fileID: 21300000, guid: 69dea494e1770e04cbdf60ec19c672c2,
    type: 3}
  Selected_Audio:
    Guid:
      Data1: 1915450224
      Data2: 1142464527
      Data3: -308229963
      Data4: -1694087004
    Path: event:/Detective self talks/Det.Brown Line 2
  Audio_Text: "Great\u2026I got the cash, but not enough. Maybe I can convince the
    cashier to put this on a tab or to make an exception for an old vet like me,
    just this once"
  ObjectCollected: 0
