%YAML 1.1
%TAG !u! tag:unity3d.com,2011:
--- !u!21 &2100000
Material:
  serializedVersion: 8
  m_ObjectHideFlags: 0
  m_CorrespondingSourceObject: {fileID: 0}
  m_PrefabInstance: {fileID: 0}
  m_PrefabAsset: {fileID: 0}
  m_Name: Pillars
  m_Shader: {fileID: -6465566751694194690, guid: e05b6b28aaadc1e4681e57311faa898e,
    type: 3}
  m_Parent: {fileID: 0}
  m_ModifiedSerializedProperties: 0
  m_ValidKeywords:
  - _ALPHATEST_ON
  m_InvalidKeywords: []
  m_LightmapFlags: 4
  m_EnableInstancingVariants: 0
  m_DoubleSidedGI: 0
  m_CustomRenderQueue: 2450
  stringTagMap:
    RenderType: TransparentCutout
  disabledShaderPasses:
  - MOTIONVECTORS
  m_LockedProperties: 
  m_SavedProperties:
    serializedVersion: 3
    m_TexEnvs:
    - _Texture2D:
        m_Texture: {fileID: 2800000, guid: 8b00341b7eb23c244aee28d070417047, type: 3}
        m_Scale: {x: 1, y: 1}
        m_Offset: {x: 0, y: 0}
    - _Texture2D_1:
        m_Texture: {fileID: 2800000, guid: 93f92c84043fdc4408aaa77daa090d7f, type: 3}
        m_Scale: {x: 1, y: 1}
        m_Offset: {x: 0, y: 0}
    - _Texture2D_2:
        m_Texture: {fileID: 2800000, guid: 15870f1ee8d13904597203ddad4fb54f, type: 3}
        m_Scale: {x: 1, y: 1}
        m_Offset: {x: 0, y: 0}
    - unity_Lightmaps:
        m_Texture: {fileID: 0}
        m_Scale: {x: 1, y: 1}
        m_Offset: {x: 0, y: 0}
    - unity_LightmapsInd:
        m_Texture: {fileID: 0}
        m_Scale: {x: 1, y: 1}
        m_Offset: {x: 0, y: 0}
    - unity_ShadowMasks:
        m_Texture: {fileID: 0}
        m_Scale: {x: 1, y: 1}
        m_Offset: {x: 0, y: 0}
    m_Ints: []
    m_Floats:
    - _AlphaClip: 1
    - _AlphaToMask: 1
    - _Blend: 0
    - _BlendModePreserveSpecular: 1
    - _Blend_Value: 4.67
    - _CastShadows: 1
    - _Cull: 2
    - _DoTPX_Max_spread_amount: -0.06
    - _DoTPX_Min_spread_amount: 0.51
    - _DoTPY_Max_scale_Distance: 0.28
    - _DoTPY_Min_Gap_scale: 1.28
    - _DoTP_Max: 0
    - _DoTP_Min: 0
    - _DstBlend: 0
    - _Float: 1.3
    - _MIn: -0.56
    - _Mask_Brightness: 0.12
    - _Max: 1.1
    - _QueueControl: 0
    - _QueueOffset: 0
    - _ReceiveShadows: 1
    - _Shaded_amount: -0.26
    - _Shades_Set: 1.91
    - _SrcBlend: 1
    - _Surface: 0
    - _WorkflowMode: 1
    - _XSpeed: 0
    - _Yspeed: 0
    - _ZTest: 4
    - _ZWrite: 1
    - _ZWriteControl: 0
    - _blend: -1.57
    - _brightness: 1.06
    - _brightness_darkershade: 4.93
    - _scale: 93.48
    - _scale_of_hatches: 1.74
    - _thickness: 0.01
    m_Colors:
    - _Shaded_Color: {r: 1, g: 1, b: 1, a: 1}
    - _main_color: {r: 1, g: 1, b: 1, a: 1}
  m_BuildTextureStacks: []
  m_AllowLocking: 1
--- !u!114 &3800431462758949860
MonoBehaviour:
  m_ObjectHideFlags: 11
  m_CorrespondingSourceObject: {fileID: 0}
  m_PrefabInstance: {fileID: 0}
  m_PrefabAsset: {fileID: 0}
  m_GameObject: {fileID: 0}
  m_Enabled: 1
  m_EditorHideFlags: 0
  m_Script: {fileID: 11500000, guid: d0353a89b1f911e48b9e16bdc9f2e058, type: 3}
  m_Name: 
  m_EditorClassIdentifier: 
  version: 9
