%YAML 1.1
%TAG !u! tag:unity3d.com,2011:
--- !u!114 &11400000
MonoBehaviour:
  m_ObjectHideFlags: 0
  m_CorrespondingSourceObject: {fileID: 0}
  m_PrefabInstance: {fileID: 0}
  m_PrefabAsset: {fileID: 0}
  m_GameObject: {fileID: 0}
  m_Enabled: 1
  m_EditorHideFlags: 0
  m_Script: {fileID: 11500000, guid: 7c82b77de6a5c934aaf94f67e9e75381, type: 3}
  m_Name: Quest_talk_Basil
  m_EditorClassIdentifier: 
  DialogOrFind: 0
  findObjects: 0
  QuestName: Talk to Basil
  QuestDescription: The butler has something for you make sure you go and talk to
    him
  QuestComplete: 0
